<svg height="24" viewBox="0 0 24 24" width="24" xmlns="http://www.w3.org/2000/svg">
    <g fill="#E2E2EA" fill-rule="evenodd">
        <path d="M8 1h8a7 7 0 017 7v8a7 7 0 01-7 7H8a7 7 0 01-7-7V8a7 7 0 017-7z" />
        <path
            d="M10.414 11.828l-2.121-2.12a1 1 0 011.414-1.415l2.121 2.121 2.122-2.121a1 1 0 111.414 1.414l-2.121 2.121 2.121 2.122a1 1 0 11-1.414 1.414l-2.122-2.121-2.12 2.121a1 1 0 01-1.415-1.414l2.121-2.122z" />
    </g>
</svg>
