<svg height="24" viewBox="0 0 24 24" width="24" xmlns="http://www.w3.org/2000/svg">
    <g fill="none" fill-rule="evenodd">
        <path d="M0 0L24 0 24 24 0 24z" />
        <path
            d="M12.401 2.176l8.337 4.667c.86.481.944 1.651.253 2.268v7.807c.903.967 1.388 1.789 1.388 2.525a2.325 2.325 0 01-2.316 2.333 2.325 2.325 0 01-2.316-2.333c0-.736.485-1.557 1.388-2.524l.001-6.732-.463.259v5.191c0 .34-.123.67-.346.925-1.331 1.523-3.544 2.238-6.601 2.238s-5.27-.715-6.6-2.238a1.406 1.406 0 01-.347-.925v-5.191L2.715 9.29c-.953-.533-.953-1.914 0-2.447l8.337-4.667a1.38 1.38 0 011.35 0zm7.662 16.508a4.544 4.544 0 00-.266.37c-.141.22-.197.365-.197.389 0 .258.207.467.463.467a.465.465 0 00.463-.467c0-.024-.055-.169-.196-.39a4.544 4.544 0 00-.267-.369zm-3.242-7.046l-3.97 2.222a2.301 2.301 0 01-2.25 0l-3.97-2.222v3.816c.943.968 2.623 1.48 5.095 1.48 2.472 0 4.152-.512 5.095-1.48v-3.816zm-5.095-7.704L4.343 8.067l7.383 4.132 7.383-4.132-7.383-4.133z"
            fill="#1A3FA2" />
    </g>
</svg>
