<svg height="24" viewBox="0 0 24 24" width="24" xmlns="http://www.w3.org/2000/svg">
    <path
        d="M18.957 7.907a.997.997 0 011.995 0v9.916A4.177 4.177 0 0116.775 22H6.177A4.177 4.177 0 012 17.823V7.225a4.177 4.177 0 014.177-4.177h9.6a.997.997 0 110 1.995h-9.6a2.182 2.182 0 00-2.182 2.182v10.598c0 1.205.977 2.182 2.182 2.182h10.598a2.182 2.182 0 002.182-2.182V7.907zm.88-5.597a.997.997 0 111.445 1.375l-9.55 10.03a.997.997 0 11-1.445-1.376l9.55-10.03z"
        fill="#92929D" fill-rule="evenodd" />
</svg>
