<svg style="shape-rendering:geometricPrecision;text-rendering:geometricPrecision;image-rendering:optimizeQuality;" clip-rule="evenodd" fill-rule="evenodd"
    version="1.1" viewBox="0 0 203 260" x="0px" xmlns="http://www.w3.org/2000/svg" y="0px" xml:space="preserve"><defs><style type="text/css">
   
    .fil0 {fill:black}
   
  </style></defs>
    <g><circle class="fil0" cx="126" cy="69" r="40"/>
        <path class="fil0"
            d="M73 208l130 0c-7,-44 -28,-79 -55,-91 -21,13 -42,2 -61,-13 -39,-28 -27,-14 -57,-94 -8,-19 -36,-8 -29,11 5,13 21,67 37,86 51,40 45,32 35,101z" /></g></svg>